%YAML 1.1
%TAG !u! tag:unity3d.com,2011:
--- !u!1045 &1
EditorBuildSettings:
  m_ObjectHideFlags: 0
  serializedVersion: 2
  m_Scenes:
  - enabled: 0
    path: 
    guid: 00000000000000000000000000000000
  - enabled: 1
    path: Assets/Scenes/SharkJaws/Full/Main.unity
    guid: 455bba6d215c12d4190992545a8782ab
  - enabled: 1
    path: Assets/Scenes/SharkJaws/Full/End.unity
    guid: 754ece1db117e2848b8a265fdd366ef2
  - enabled: 1
    path: Assets/Scenes/SharkJaws/Full/Levels/Level_1.unity
    guid: f28e3f24672a3254594f1c26b10b917b
  m_configObjects: {}
